Comanche Peak, CO
================

### Load route

Another route - Comanche Peak, near where I grew up (ish). Also started
in 1994\!

Here are the species present in this route over the past 25 years:

    ## Joining, by = "id"

    ## # A tibble: 79 x 3
    ##    id     mean_size english_common_name     
    ##    <chr>      <dbl> <chr>                   
    ##  1 sp4320      3.56 Broad-tailed Hummingbird
    ##  2 sp7510      5.66 Blue-gray Gnatcatcher   
    ##  3 sp7490      6.21 Ruby-crowned Kinglet    
    ##  4 sp7480      6.26 Golden-crowned Kinglet  
    ##  5 sp6850      7.20 Wilson's Warbler        
    ##  6 sp6440      7.22 Virginia's Warbler      
    ##  7 sp5300      7.79 Lesser Goldfinch        
    ##  8 sp7260      8.39 Brown Creeper           
    ##  9 sp7280      9.74 Red-breasted Nuthatch   
    ## 10 sp4690     10.4  Dusky Flycatcher        
    ## # ... with 69 more rows
…
